{
        "windowTitle": "Web IRC",
        "startupScreen": "welcome",
        "kiwiServer": "/webirc/kiwiirc/",
        "restricted": true,
        "theme": "default",
        "themes": [
                { "name": "Default", "url": "static/themes/default" },
                { "name": "Dark", "url": "static/themes/dark" },
                { "name": "Coffee", "url": "static/themes/coffee" },
                { "name": "GrayFox", "url": "static/themes/grayfox" },
                { "name": "Nightswatch", "url": "static/themes/nightswatch" },
                { "name": "Osprey", "url": "static/themes/osprey" },
                { "name": "Radioactive", "url": "static/themes/radioactive" },
                { "name": "Sky", "url": "static/themes/sky" }
        ],
        "startupOptions" : {
                "channel": "#public",
                "nick": "web?",
                "greetingText": "Hello!",
                "infoBackground": "",
                "infoContent": "<h3>Welcome to your Kiwi IRC page!</h3><p>Please respect others.</p>"
        }
}

